; Engine configuration file.
; It's best edited using the editor UI and not directly,
; since the parameters that go here are not all obvious.
;
; Format:
;   [section] ; section goes between []
;   param=value ; assign values to parameters

config_version=3

[application]

config/name="Indie Libre - TappyPlane"
run/main_scene="res://Levels/escena_select.tscn"
config/icon="res://Graphics/PNG/UI/medalGold.png"

[autoload]

global_var="*res://Codes/global_var.gd"
Persistence="*res://Codes/Persistence.tscn"

[display]

window/size/width=808
window/size/height=480
window/handheld/emulate_touchscreen=true
window/stretch/mode="2d"
window/stretch/aspect="keep"

[editor_plugins]

enabled=PoolStringArray( "PersistenceNode" )

[rendering]

environment/default_environment="res://default_env.tres"
