[gd_scene load_steps=3 format=2]

[ext_resource path="res://addons/PersistenceNode/persistence_node.gd" type="Script" id=1]
[ext_resource path="res://addons/PersistenceNode/icon.png" type="Texture" id=2]

[node name="Persistence" type="Node" index="0"]

script = ExtResource( 1 )
__meta__ = {
"_editor_icon": ExtResource( 2 )
}
mode = 1
password = ""
folder_name = "PersistenceNode"
no_valid_names = [ "default", "example" ]
debug = true
beautifier_active = true
profile_name_min_size = 3
profile_name_max_size = 15


